%YAML 1.1
%TAG !u! tag:unity3d.com,2011:
--- !u!21 &2100000
Material:
  serializedVersion: 6
  m_ObjectHideFlags: 0
  m_PrefabParentObject: {fileID: 0}
  m_PrefabInternal: {fileID: 0}
  m_Name: Particles
  m_Shader: {fileID: 4800000, guid: 8ef4d5815d2bdca4ebddfd2ea1415ef8, type: 3}
  m_ShaderKeywords: 
  m_LightmapFlags: 4
  m_EnableInstancingVariants: 0
  m_DoubleSidedGI: 0
  m_CustomRenderQueue: -1
  stringTagMap: {}
  disabledShaderPasses: []
  m_SavedProperties:
    serializedVersion: 3
    m_TexEnvs:
    - _MainTex:
        m_Texture: {fileID: 10300, guid: 0000000000000000f000000000000000, type: 0}
        m_Scale: {x: 1, y: 1}
        m_Offset: {x: 0, y: 0}
    m_Floats:
    - _ColorStrength: 1
    - _CoreStrength: 2.767857
    - _CutOutLightCore: 0.5
    - _InvFade: 3
    - _TintStrength: 2.3214285
    m_Colors:
    - _Color: {r: 1, g: 1, b: 1, a: 1}
    - _CoreColor: {r: 1, g: 0.76643, b: 0.6397059, a: 1}
    - _TintColor: {r: 1, g: 0.59533465, b: 0.16176468, a: 1}
