%YAML 1.1
%TAG !u! tag:unity3d.com,2011:
--- !u!21 &2100000
Material:
  serializedVersion: 6
  m_ObjectHideFlags: 0
  m_PrefabParentObject: {fileID: 0}
  m_PrefabInternal: {fileID: 0}
  m_Name: ExplosionMobile
  m_Shader: {fileID: 4800000, guid: 49895ab10e5998b4db8eee81071536b6, type: 3}
  m_ShaderKeywords: 
  m_LightmapFlags: 4
  m_EnableInstancingVariants: 0
  m_DoubleSidedGI: 0
  m_CustomRenderQueue: -1
  stringTagMap: {}
  disabledShaderPasses: []
  m_SavedProperties:
    serializedVersion: 3
    m_TexEnvs:
    - _BumpMap:
        m_Texture: {fileID: 2800000, guid: a21ad5818c922284cbfd49dd3e24d802, type: 3}
        m_Scale: {x: 1, y: 1}
        m_Offset: {x: 0, y: 0}
    - _MainTex:
        m_Texture: {fileID: 2800000, guid: 515ccb073c405e54a995e1d53d4817c5, type: 3}
        m_Scale: {x: 1, y: 1}
        m_Offset: {x: 0, y: 0}
    m_Floats:
    - _BumpAmt: 500
    - _ColorStrength: 0.75
    - _CoreStrength: 4.428571
    - _CutOutLightCore: 1
    - _InvFade: 3
    - _TintStrength: 4.2142854
    m_Colors:
    - _Color: {r: 1, g: 1, b: 1, a: 1}
    - _CoreColor: {r: 0.99264705, g: 0.9256484, b: 0.9123594, a: 0.5019608}
    - _TintColor: {r: 0.3602941, g: 0.44411758, b: 1, a: 1}
