%YAML 1.1
%TAG !u! tag:unity3d.com,2011:
--- !u!21 &2100000
Material:
  serializedVersion: 6
  m_ObjectHideFlags: 0
  m_PrefabParentObject: {fileID: 0}
  m_PrefabInternal: {fileID: 0}
  m_Name: Distortion2
  m_Shader: {fileID: 4800000, guid: fdb7e96596117a842b8c17421a6b9b02, type: 3}
  m_ShaderKeywords: 
  m_LightmapFlags: 4
  m_EnableInstancingVariants: 0
  m_DoubleSidedGI: 0
  m_CustomRenderQueue: -1
  stringTagMap: {}
  disabledShaderPasses: []
  m_SavedProperties:
    serializedVersion: 3
    m_TexEnvs:
    - _BumpMap:
        m_Texture: {fileID: 2800000, guid: c8b3e5216f13f1248a0857a10afc8fad, type: 3}
        m_Scale: {x: 1, y: 1}
        m_Offset: {x: 0, y: 0}
    - _CutOut:
        m_Texture: {fileID: 2800000, guid: b667237b8dfe1ad4d83055bebe0b42e5, type: 3}
        m_Scale: {x: 1, y: 1}
        m_Offset: {x: 0, y: 0}
    - _MainTex:
        m_Texture: {fileID: 2800000, guid: e4cc47f9865824c4e86668ccb1db0c80, type: 3}
        m_Scale: {x: 1, y: 1}
        m_Offset: {x: 0, y: 0}
    m_Floats:
    - _BumpAmt: 60
    - _ColorStrength: 1
    - _InvFade: 3
    m_Colors:
    - _Color: {r: 1, g: 1, b: 1, a: 1}
    - _TintColor: {r: 1, g: 0, b: 0, a: 1}
