%YAML 1.1
%TAG !u! tag:unity3d.com,2011:
--- !u!21 &2100000
Material:
  serializedVersion: 6
  m_ObjectHideFlags: 0
  m_PrefabParentObject: {fileID: 0}
  m_PrefabInternal: {fileID: 0}
  m_Name: DistortionAOEMobile
  m_Shader: {fileID: 4800000, guid: 0806d638f118c844b9909f0a153b6bf7, type: 3}
  m_ShaderKeywords: 
  m_LightmapFlags: 4
  m_EnableInstancingVariants: 0
  m_DoubleSidedGI: 0
  m_CustomRenderQueue: 3101
  stringTagMap: {}
  disabledShaderPasses: []
  m_SavedProperties:
    serializedVersion: 3
    m_TexEnvs:
    - _BumpMap:
        m_Texture: {fileID: 2800000, guid: c8b3e5216f13f1248a0857a10afc8fad, type: 3}
        m_Scale: {x: 1, y: 1}
        m_Offset: {x: 0, y: 0}
    - _CutOut:
        m_Texture: {fileID: 2800000, guid: 1d62f518f1473c448b30f4b038491910, type: 3}
        m_Scale: {x: 1, y: 1}
        m_Offset: {x: 0, y: 0}
    - _MainTex:
        m_Texture: {fileID: 2800000, guid: ae95e285aef9b0e48b2497903c1f77fb, type: 3}
        m_Scale: {x: 1, y: 1}
        m_Offset: {x: 0, y: 0}
    m_Floats:
    - _BumpAmt: 25
    - _ColorStrength: 0.2
    - _InvFade: 1
    - _Shininess: 0.078125
    m_Colors:
    - _Color: {r: 1, g: 1, b: 1, a: 1}
    - _SpecColor: {r: 0.5, g: 0.5, b: 0.5, a: 1}
    - _TintColor: {r: 1, g: 0.34509805, b: 0.13333334, a: 1}
