%YAML 1.1
%TAG !u! tag:unity3d.com,2011:
--- !u!21 &2100000
Material:
  serializedVersion: 6
  m_ObjectHideFlags: 0
  m_PrefabParentObject: {fileID: 0}
  m_PrefabInternal: {fileID: 0}
  m_Name: Print
  m_Shader: {fileID: 4800000, guid: 49895ab10e5998b4db8eee81071536b6, type: 3}
  m_ShaderKeywords: 
  m_LightmapFlags: 4
  m_EnableInstancingVariants: 0
  m_DoubleSidedGI: 0
  m_CustomRenderQueue: -1
  stringTagMap: {}
  disabledShaderPasses: []
  m_SavedProperties:
    serializedVersion: 3
    m_TexEnvs:
    - _BumpMap:
        m_Texture: {fileID: 2800000, guid: 33708ccd803b6f34285d93bfaf469506, type: 3}
        m_Scale: {x: 1, y: 1}
        m_Offset: {x: 0, y: 0}
    - _Cube:
        m_Texture: {fileID: 8900000, guid: e2fc12be2e3e72f44a8a78d46d5e2559, type: 2}
        m_Scale: {x: 1, y: 1}
        m_Offset: {x: 0, y: 0}
    - _CutOut:
        m_Texture: {fileID: 2800000, guid: c07e02d8354d4a3459c8085a8c3d41b3, type: 3}
        m_Scale: {x: 1, y: 1}
        m_Offset: {x: 0, y: 0}
    - _MainTex:
        m_Texture: {fileID: 2800000, guid: c07e02d8354d4a3459c8085a8c3d41b3, type: 3}
        m_Scale: {x: 1, y: 1}
        m_Offset: {x: 0, y: 0}
    m_Floats:
    - _BumpAmt: 50
    - _ColorStrength: 0.35
    - _Cutoff: 1
    - _FPOW: 1.86
    - _InvFade: 3
    - _LightStr: 0.21428572
    - _Opacity: 1
    - _R0: 0.74
    - _ReflectionStrength: 1
    - _Shininess: 0.341283
    m_Colors:
    - _Color: {r: 0.058823526, g: 0.058823526, b: 0.058823526, a: 1}
    - _ReflectColor: {r: 0.46323532, g: 0.5557811, b: 1, a: 0.5019608}
    - _SpecColor: {r: 0.78676474, g: 0.84117645, b: 1, a: 1}
    - _TintColor: {r: 0.74264705, g: 0.7976673, b: 1, a: 1}
    - _TintColorB: {r: 0.89705884, g: 0.9190669, b: 1, a: 0.7058824}
