%YAML 1.1
%TAG !u! tag:unity3d.com,2011:
--- !u!21 &2100000
Material:
  serializedVersion: 6
  m_ObjectHideFlags: 0
  m_PrefabParentObject: {fileID: 0}
  m_PrefabInternal: {fileID: 0}
  m_Name: Snow
  m_Shader: {fileID: 4800000, guid: 8ef4d5815d2bdca4ebddfd2ea1415ef8, type: 3}
  m_ShaderKeywords: 
  m_LightmapFlags: 4
  m_EnableInstancingVariants: 0
  m_DoubleSidedGI: 0
  m_CustomRenderQueue: -1
  stringTagMap: {}
  disabledShaderPasses: []
  m_SavedProperties:
    serializedVersion: 3
    m_TexEnvs:
    - _BumpMap:
        m_Texture: {fileID: 2800000, guid: 17b47fb93d33fb64f9183b3b7321a675, type: 3}
        m_Scale: {x: 10, y: 10}
        m_Offset: {x: 0, y: 0}
    - _Cube:
        m_Texture: {fileID: 8900000, guid: e2fc12be2e3e72f44a8a78d46d5e2559, type: 2}
        m_Scale: {x: 1, y: 1}
        m_Offset: {x: 0, y: 0}
    - _MainTex:
        m_Texture: {fileID: 2800000, guid: 004ba6eb439f53e4c89f3d65f6485d1c, type: 3}
        m_Scale: {x: 1, y: 1}
        m_Offset: {x: 0, y: 0}
    m_Floats:
    - _ColorStrength: 1
    - _CutOut: 0.3
    - _Cutoff: 1
    - _FPOW: 2.55
    - _InvFade: 7
    - _LightStr: 0.5714286
    - _Opacity: -0.071428575
    - _R0: 1.04
    - _ReflectionStrength: 7.785714
    - _Shininess: 0.38925308
    m_Colors:
    - _Color: {r: 0.89705884, g: 0.9148073, b: 1, a: 1}
    - _ReflectColor: {r: 0.875, g: 0.89655167, b: 1, a: 0.5019608}
    - _SpecColor: {r: 1, g: 1, b: 1, a: 1}
    - _TintColor: {r: 0.21118082, g: 0.26506838, b: 0.46323532, a: 0.16862746}
    - _TintColorB: {r: 0.85294116, g: 0.89655167, b: 1, a: 1}
