%YAML 1.1
%TAG !u! tag:unity3d.com,2011:
--- !u!21 &2100000
Material:
  serializedVersion: 6
  m_ObjectHideFlags: 0
  m_PrefabParentObject: {fileID: 0}
  m_PrefabInternal: {fileID: 0}
  m_Name: Fog
  m_Shader: {fileID: 4800000, guid: 9ced8be6686666e4a9d4fd03e4ba2439, type: 3}
  m_ShaderKeywords: 
  m_LightmapFlags: 4
  m_EnableInstancingVariants: 0
  m_DoubleSidedGI: 0
  m_CustomRenderQueue: -1
  stringTagMap: {}
  disabledShaderPasses: []
  m_SavedProperties:
    serializedVersion: 3
    m_TexEnvs:
    - _MainTex:
        m_Texture: {fileID: 2800000, guid: e4cc47f9865824c4e86668ccb1db0c80, type: 3}
        m_Scale: {x: 1, y: 1}
        m_Offset: {x: 0, y: 0}
    m_Floats:
    - _CoreStrength: 4
    - _CutOutLightCore: 0.58928573
    - _InvFade: 3
    - _TintStrength: 1.3392856
    m_Colors:
    - _Color: {r: 1, g: 1, b: 1, a: 1}
    - _CoreColor: {r: 0.99264705, g: 0.5633725, b: 0.233564, a: 0.7176471}
    - _TintColor: {r: 1, g: 0.4030426, b: 0.20588237, a: 0.6862745}
