%YAML 1.1
%TAG !u! tag:unity3d.com,2011:
--- !u!21 &2100000
Material:
  serializedVersion: 6
  m_ObjectHideFlags: 0
  m_PrefabParentObject: {fileID: 0}
  m_PrefabInternal: {fileID: 0}
  m_Name: Trail
  m_Shader: {fileID: 4800000, guid: e1db95d5cd48d3743bb433c80809031e, type: 3}
  m_ShaderKeywords: 
  m_LightmapFlags: 4
  m_EnableInstancingVariants: 0
  m_DoubleSidedGI: 0
  m_CustomRenderQueue: -1
  stringTagMap: {}
  disabledShaderPasses: []
  m_SavedProperties:
    serializedVersion: 3
    m_TexEnvs:
    - _MainTex:
        m_Texture: {fileID: 2800000, guid: 22e510ad4c04ac5419d5c829c8d0d35e, type: 3}
        m_Scale: {x: 1, y: 1}
        m_Offset: {x: 0, y: 0}
    m_Floats:
    - _Chanel: 0
    - _ColorStrB: 4
    - _ColorStrG: 4
    - _ColorStrR: 0.01
    - _ColorStrength: 2
    - _CoreStrength: 5
    - _CutOutLightCore: 0
    - _InvFade: 6.997143
    - _TintStrength: 5
    m_Colors:
    - _Color: {r: 1, g: 1, b: 1, a: 1}
    - _CoreColor: {r: 1, g: 0.13235295, b: 0.13235295, a: 1}
    - _TintColor: {r: 1, g: 0.46617648, b: 0.27205884, a: 1}
    - _TintColorB: {r: 1, g: 0.56825256, b: 0.31617647, a: 1}
    - _TintColorG: {r: 1, g: 1, b: 1, a: 1}
    - _TintColorR: {r: 1, g: 0, b: 0, a: 1}
