%YAML 1.1
%TAG !u! tag:unity3d.com,2011:
--- !u!29 &1
OcclusionCullingSettings:
  m_ObjectHideFlags: 0
  serializedVersion: 2
  m_OcclusionBakeSettings:
    smallestOccluder: 5
    smallestHole: 0.25
    backfaceThreshold: 100
  m_SceneGUID: 00000000000000000000000000000000
  m_OcclusionCullingData: {fileID: 0}
--- !u!104 &2
RenderSettings:
  m_ObjectHideFlags: 0
  serializedVersion: 8
  m_Fog: 0
  m_FogColor: {r: 0.5, g: 0.5, b: 0.5, a: 1}
  m_FogMode: 3
  m_FogDensity: 0.01
  m_LinearFogStart: 0
  m_LinearFogEnd: 300
  m_AmbientSkyColor: {r: 0.212, g: 0.227, b: 0.259, a: 1}
  m_AmbientEquatorColor: {r: 0.114, g: 0.125, b: 0.133, a: 1}
  m_AmbientGroundColor: {r: 0.047, g: 0.043, b: 0.035, a: 1}
  m_AmbientIntensity: 1
  m_AmbientMode: 0
  m_SubtractiveShadowColor: {r: 0.42, g: 0.478, b: 0.627, a: 1}
  m_SkyboxMaterial: {fileID: 10304, guid: 0000000000000000f000000000000000, type: 0}
  m_HaloStrength: 0.5
  m_FlareStrength: 1
  m_FlareFadeSpeed: 3
  m_HaloTexture: {fileID: 0}
  m_SpotCookie: {fileID: 10001, guid: 0000000000000000e000000000000000, type: 0}
  m_DefaultReflectionMode: 0
  m_DefaultReflectionResolution: 128
  m_ReflectionBounces: 1
  m_ReflectionIntensity: 1
  m_CustomReflection: {fileID: 0}
  m_Sun: {fileID: 0}
  m_IndirectSpecularColor: {r: 0.44657898, g: 0.4964133, b: 0.5748178, a: 1}
--- !u!157 &3
LightmapSettings:
  m_ObjectHideFlags: 0
  serializedVersion: 11
  m_GIWorkflowMode: 0
  m_GISettings:
    serializedVersion: 2
    m_BounceScale: 1
    m_IndirectOutputScale: 1
    m_AlbedoBoost: 1
    m_TemporalCoherenceThreshold: 1
    m_EnvironmentLightingMode: 0
    m_EnableBakedLightmaps: 1
    m_EnableRealtimeLightmaps: 1
  m_LightmapEditorSettings:
    serializedVersion: 9
    m_Resolution: 2
    m_BakeResolution: 40
    m_TextureWidth: 1024
    m_TextureHeight: 1024
    m_AO: 0
    m_AOMaxDistance: 1
    m_CompAOExponent: 0
    m_CompAOExponentDirect: 0
    m_Padding: 2
    m_LightmapParameters: {fileID: 0}
    m_LightmapsBakeMode: 1
    m_TextureCompression: 1
    m_FinalGather: 0
    m_FinalGatherFiltering: 1
    m_FinalGatherRayCount: 1024
    m_ReflectionCompression: 2
    m_MixedBakeMode: 1
    m_BakeBackend: 0
    m_PVRSampling: 1
    m_PVRDirectSampleCount: 32
    m_PVRSampleCount: 500
    m_PVRBounces: 2
    m_PVRFiltering: 0
    m_PVRFilteringMode: 1
    m_PVRCulling: 1
    m_PVRFilteringGaussRadiusDirect: 1
    m_PVRFilteringGaussRadiusIndirect: 5
    m_PVRFilteringGaussRadiusAO: 2
    m_PVRFilteringAtrousColorSigma: 1
    m_PVRFilteringAtrousNormalSigma: 1
    m_PVRFilteringAtrousPositionSigma: 1
  m_LightingDataAsset: {fileID: 0}
  m_UseShadowmask: 1
--- !u!196 &4
NavMeshSettings:
  serializedVersion: 2
  m_ObjectHideFlags: 0
  m_BuildSettings:
    serializedVersion: 2
    agentTypeID: 0
    agentRadius: 0.5
    agentHeight: 2
    agentSlope: 45
    agentClimb: 0.4
    ledgeDropHeight: 0
    maxJumpAcrossDistance: 0
    minRegionArea: 2
    manualCellSize: 0
    cellSize: 0.16666667
    manualTileSize: 0
    tileSize: 256
    accuratePlacement: 0
  m_NavMeshData: {fileID: 0}
--- !u!1 &59362117
GameObject:
  m_ObjectHideFlags: 0
  m_PrefabParentObject: {fileID: 195960, guid: 2bc3ec6a75f48c940987f299bc3b6fd3, type: 2}
  m_PrefabInternal: {fileID: 0}
  serializedVersion: 5
  m_Component:
  - component: {fileID: 59362118}
  m_Layer: 0
  m_Name: HandModels
  m_TagString: Untagged
  m_Icon: {fileID: 0}
  m_NavMeshLayer: 0
  m_StaticEditorFlags: 0
  m_IsActive: 1
--- !u!4 &59362118
Transform:
  m_ObjectHideFlags: 0
  m_PrefabParentObject: {fileID: 414632, guid: 2bc3ec6a75f48c940987f299bc3b6fd3, type: 2}
  m_PrefabInternal: {fileID: 0}
  m_GameObject: {fileID: 59362117}
  m_LocalRotation: {x: 0, y: 0, z: 0, w: 1}
  m_LocalPosition: {x: 0, y: 0, z: 0}
  m_LocalScale: {x: 1, y: 1, z: 1}
  m_Children:
  - {fileID: 1992000241}
  - {fileID: 1051187770}
  m_Father: {fileID: 1273303168}
  m_RootOrder: 2
  m_LocalEulerAnglesHint: {x: 0, y: 0, z: 0}
--- !u!1 &433848302
GameObject:
  m_ObjectHideFlags: 0
  m_PrefabParentObject: {fileID: 107996, guid: 2bc3ec6a75f48c940987f299bc3b6fd3, type: 2}
  m_PrefabInternal: {fileID: 0}
  serializedVersion: 5
  m_Component:
  - component: {fileID: 433848303}
  - component: {fileID: 433848304}
  m_Layer: 0
  m_Name: LeapSpace
  m_TagString: Untagged
  m_Icon: {fileID: 0}
  m_NavMeshLayer: 0
  m_StaticEditorFlags: 0
  m_IsActive: 1
--- !u!4 &433848303
Transform:
  m_ObjectHideFlags: 0
  m_PrefabParentObject: {fileID: 414854, guid: 2bc3ec6a75f48c940987f299bc3b6fd3, type: 2}
  m_PrefabInternal: {fileID: 0}
  m_GameObject: {fileID: 433848302}
  m_LocalRotation: {x: 0, y: 0, z: 0, w: 1}
  m_LocalPosition: {x: 0, y: 0, z: 0}
  m_LocalScale: {x: 1, y: 1, z: 1}
  m_Children:
  - {fileID: 1422251473}
  - {fileID: 935349696}
  m_Father: {fileID: 580896530}
  m_RootOrder: 0
  m_LocalEulerAnglesHint: {x: 0, y: 0, z: 0}
--- !u!114 &433848304
MonoBehaviour:
  m_ObjectHideFlags: 0
  m_PrefabParentObject: {fileID: 11405022, guid: 2bc3ec6a75f48c940987f299bc3b6fd3,
    type: 2}
  m_PrefabInternal: {fileID: 0}
  m_GameObject: {fileID: 433848302}
  m_Enabled: 1
  m_EditorHideFlags: 0
  m_Script: {fileID: 11500000, guid: e21f7214440054f59a5d2da168b3e2dd, type: 3}
  m_Name: 
  m_EditorClassIdentifier: 
  provider: {fileID: 1422251475}
  _headTransform: {fileID: 580896530}
  _trackingAnchor: {fileID: 1273303168}
  _recenter: 114
  _tweenImageWarping: 1
  _tweenRotationalWarping: 1
  _tweenPositionalWarping: 1
  _syncMode: 0
  _forceCustomUpdate: 0
  _allowManualTimeAlignment: 1
  _warpingAdjustment: 20
  _unlockHold: 303
  _moreRewind: 276
  _lessRewind: 275
  _allowManualDeviceOffset: 1
  _deviceOffsetYAxis: 0
  _deviceOffsetZAxis: 0.12
  _deviceTiltXAxis: 0
--- !u!1 &580896529
GameObject:
  m_ObjectHideFlags: 0
  m_PrefabParentObject: {fileID: 149838, guid: 2bc3ec6a75f48c940987f299bc3b6fd3, type: 2}
  m_PrefabInternal: {fileID: 0}
  serializedVersion: 5
  m_Component:
  - component: {fileID: 580896530}
  - component: {fileID: 580896535}
  - component: {fileID: 580896534}
  - component: {fileID: 580896533}
  - component: {fileID: 580896532}
  - component: {fileID: 580896531}
  m_Layer: 0
  m_Name: LeftEyeAnchor
  m_TagString: MainCamera
  m_Icon: {fileID: 0}
  m_NavMeshLayer: 0
  m_StaticEditorFlags: 0
  m_IsActive: 1
--- !u!4 &580896530
Transform:
  m_ObjectHideFlags: 0
  m_PrefabParentObject: {fileID: 428370, guid: 2bc3ec6a75f48c940987f299bc3b6fd3, type: 2}
  m_PrefabInternal: {fileID: 0}
  m_GameObject: {fileID: 580896529}
  m_LocalRotation: {x: 0, y: 0, z: 0, w: 1}
  m_LocalPosition: {x: 0, y: 0, z: 0}
  m_LocalScale: {x: 1, y: 1, z: 1}
  m_Children:
  - {fileID: 433848303}
  m_Father: {fileID: 1273303168}
  m_RootOrder: 0
  m_LocalEulerAnglesHint: {x: 0, y: 0, z: 0}
--- !u!114 &580896531
MonoBehaviour:
  m_ObjectHideFlags: 0
  m_PrefabParentObject: {fileID: 11410146, guid: 2bc3ec6a75f48c940987f299bc3b6fd3,
    type: 2}
  m_PrefabInternal: {fileID: 0}
  m_GameObject: {fileID: 580896529}
  m_Enabled: 1
  m_EditorHideFlags: 0
  m_Script: {fileID: 11500000, guid: cfb12777e12bf9941b23356a343f5016, type: 3}
  m_Name: 
  m_EditorClassIdentifier: 
  _eyeType:
    _orderType: 1
  _overrideEyePosition: 1
--- !u!114 &580896532
MonoBehaviour:
  m_ObjectHideFlags: 0
  m_PrefabParentObject: {fileID: 11426492, guid: 2bc3ec6a75f48c940987f299bc3b6fd3,
    type: 2}
  m_PrefabInternal: {fileID: 0}
  m_GameObject: {fileID: 580896529}
  m_Enabled: 1
  m_EditorHideFlags: 0
  m_Script: {fileID: 11500000, guid: fd815635398474cbbba564563a209f82, type: 3}
  m_Name: 
  m_EditorClassIdentifier: 
  _provider: {fileID: 1422251475}
  _gammaCorrection: 1
  ImageTimeout: 9000
--- !u!114 &580896533
MonoBehaviour:
  m_ObjectHideFlags: 0
  m_PrefabParentObject: {fileID: 11418356, guid: 2bc3ec6a75f48c940987f299bc3b6fd3,
    type: 2}
  m_PrefabInternal: {fileID: 0}
  m_GameObject: {fileID: 580896529}
  m_Enabled: 1
  m_EditorHideFlags: 0
  m_Script: {fileID: 11500000, guid: 4499ae867a57a90449cb9069c466ade0, type: 3}
  m_Name: 
  m_EditorClassIdentifier: 
  _depthTextureMode: 0
--- !u!20 &580896534
Camera:
  m_ObjectHideFlags: 0
  m_PrefabParentObject: {fileID: 2020292, guid: 2bc3ec6a75f48c940987f299bc3b6fd3,
    type: 2}
  m_PrefabInternal: {fileID: 0}
  m_GameObject: {fileID: 580896529}
  m_Enabled: 1
  serializedVersion: 2
  m_ClearFlags: 2
  m_BackGroundColor: {r: 0.32352942, g: 0.32352942, b: 0.32352942, a: 0.019607844}
  m_NormalizedViewPortRect:
    serializedVersion: 2
    x: 0
    y: 0
    width: 1
    height: 1
  near clip plane: 0.01
  far clip plane: 100
  field of view: 106.092
  orthographic: 0
  orthographic size: 5
  m_Depth: 0
  m_CullingMask:
    serializedVersion: 2
    m_Bits: 4294967295
  m_RenderingPath: -1
  m_TargetTexture: {fileID: 0}
  m_TargetDisplay: 0
  m_TargetEye: 1
  m_HDR: 0
  m_AllowMSAA: 1
  m_ForceIntoRT: 0
  m_OcclusionCulling: 1
  m_StereoConvergence: 10
  m_StereoSeparation: 0.022
  m_StereoMirrorMode: 0
--- !u!81 &580896535
AudioListener:
  m_ObjectHideFlags: 0
  m_PrefabParentObject: {fileID: 8169796, guid: 2bc3ec6a75f48c940987f299bc3b6fd3,
    type: 2}
  m_PrefabInternal: {fileID: 0}
  m_GameObject: {fileID: 580896529}
  m_Enabled: 1
--- !u!1001 &612072774
Prefab:
  m_ObjectHideFlags: 0
  serializedVersion: 2
  m_Modification:
    m_TransformParent: {fileID: 0}
    m_Modifications:
    - target: {fileID: 4764907197606056, guid: 81a58ec9c7a7a4fababa39069949658f, type: 2}
      propertyPath: m_LocalPosition.x
      value: 0
      objectReference: {fileID: 0}
    - target: {fileID: 4764907197606056, guid: 81a58ec9c7a7a4fababa39069949658f, type: 2}
      propertyPath: m_LocalPosition.y
      value: -0.364
      objectReference: {fileID: 0}
    - target: {fileID: 4764907197606056, guid: 81a58ec9c7a7a4fababa39069949658f, type: 2}
      propertyPath: m_LocalPosition.z
      value: 0.491
      objectReference: {fileID: 0}
    - target: {fileID: 4764907197606056, guid: 81a58ec9c7a7a4fababa39069949658f, type: 2}
      propertyPath: m_LocalRotation.x
      value: 0.1024493
      objectReference: {fileID: 0}
    - target: {fileID: 4764907197606056, guid: 81a58ec9c7a7a4fababa39069949658f, type: 2}
      propertyPath: m_LocalRotation.y
      value: -0
      objectReference: {fileID: 0}
    - target: {fileID: 4764907197606056, guid: 81a58ec9c7a7a4fababa39069949658f, type: 2}
      propertyPath: m_LocalRotation.z
      value: -0
      objectReference: {fileID: 0}
    - target: {fileID: 4764907197606056, guid: 81a58ec9c7a7a4fababa39069949658f, type: 2}
      propertyPath: m_LocalRotation.w
      value: 0.9947383
      objectReference: {fileID: 0}
    - target: {fileID: 4764907197606056, guid: 81a58ec9c7a7a4fababa39069949658f, type: 2}
      propertyPath: m_RootOrder
      value: 2
      objectReference: {fileID: 0}
    m_RemovedComponents: []
  m_ParentPrefab: {fileID: 100100000, guid: 81a58ec9c7a7a4fababa39069949658f, type: 2}
  m_IsPrefabParent: 0
--- !u!1 &935349695
GameObject:
  m_ObjectHideFlags: 0
  m_PrefabParentObject: {fileID: 155186, guid: 2bc3ec6a75f48c940987f299bc3b6fd3, type: 2}
  m_PrefabInternal: {fileID: 0}
  serializedVersion: 5
  m_Component:
  - component: {fileID: 935349696}
  - component: {fileID: 935349698}
  - component: {fileID: 935349697}
  m_Layer: 0
  m_Name: QuadBackground
  m_TagString: Untagged
  m_Icon: {fileID: 0}
  m_NavMeshLayer: 0
  m_StaticEditorFlags: 0
  m_IsActive: 1
--- !u!4 &935349696
Transform:
  m_ObjectHideFlags: 0
  m_PrefabParentObject: {fileID: 405104, guid: 2bc3ec6a75f48c940987f299bc3b6fd3, type: 2}
  m_PrefabInternal: {fileID: 0}
  m_GameObject: {fileID: 935349695}
  m_LocalRotation: {x: 0, y: 0, z: 0, w: 1}
  m_LocalPosition: {x: 0, y: 0, z: 0.137}
  m_LocalScale: {x: 1, y: 1, z: 1}
  m_Children: []
  m_Father: {fileID: 433848303}
  m_RootOrder: 1
  m_LocalEulerAnglesHint: {x: 0, y: 0, z: 0}
--- !u!23 &935349697
MeshRenderer:
  m_ObjectHideFlags: 0
  m_PrefabParentObject: {fileID: 2366114, guid: 2bc3ec6a75f48c940987f299bc3b6fd3,
    type: 2}
  m_PrefabInternal: {fileID: 0}
  m_GameObject: {fileID: 935349695}
  m_Enabled: 1
  m_CastShadows: 0
  m_ReceiveShadows: 0
  m_MotionVectors: 1
  m_LightProbeUsage: 0
  m_ReflectionProbeUsage: 0
  m_Materials:
  - {fileID: 2100000, guid: a781c82cecc141143bb13e71d88efa99, type: 2}
  m_StaticBatchInfo:
    firstSubMesh: 0
    subMeshCount: 0
  m_StaticBatchRoot: {fileID: 0}
  m_ProbeAnchor: {fileID: 0}
  m_LightProbeVolumeOverride: {fileID: 0}
  m_ScaleInLightmap: 1
  m_PreserveUVs: 0
  m_IgnoreNormalsForChartDetection: 0
  m_ImportantGI: 0
  m_SelectedEditorRenderState: 3
  m_MinimumChartSize: 4
  m_AutoUVMaxDistance: 0.5
  m_AutoUVMaxAngle: 89
  m_LightmapParameters: {fileID: 0}
  m_SortingLayerID: 0
  m_SortingLayer: 0
  m_SortingOrder: 0
--- !u!33 &935349698
MeshFilter:
  m_ObjectHideFlags: 0
  m_PrefabParentObject: {fileID: 3309604, guid: 2bc3ec6a75f48c940987f299bc3b6fd3,
    type: 2}
  m_PrefabInternal: {fileID: 0}
  m_GameObject: {fileID: 935349695}
  m_Mesh: {fileID: 10210, guid: 0000000000000000e000000000000000, type: 0}
--- !u!4 &1051187770 stripped
Transform:
  m_PrefabParentObject: {fileID: 4430945870454064, guid: 2276723046d707c4f94d431ceb80ab92,
    type: 2}
  m_PrefabInternal: {fileID: 1719504580}
--- !u!114 &1051187772 stripped
MonoBehaviour:
  m_PrefabParentObject: {fileID: 114245269363414434, guid: 2276723046d707c4f94d431ceb80ab92,
    type: 2}
  m_PrefabInternal: {fileID: 1719504580}
  m_Script: {fileID: 11500000, guid: 9e0ed5922e911b343b8400997c95409c, type: 3}
--- !u!1 &1172292608
GameObject:
  m_ObjectHideFlags: 0
  m_PrefabParentObject: {fileID: 111744, guid: 2bc3ec6a75f48c940987f299bc3b6fd3, type: 2}
  m_PrefabInternal: {fileID: 0}
  serializedVersion: 5
  m_Component:
  - component: {fileID: 1172292609}
  - component: {fileID: 1172292612}
  - component: {fileID: 1172292611}
  - component: {fileID: 1172292610}
  m_Layer: 0
  m_Name: RightEyeAnchor
  m_TagString: MainCamera
  m_Icon: {fileID: 0}
  m_NavMeshLayer: 0
  m_StaticEditorFlags: 0
  m_IsActive: 1
--- !u!4 &1172292609
Transform:
  m_ObjectHideFlags: 0
  m_PrefabParentObject: {fileID: 491306, guid: 2bc3ec6a75f48c940987f299bc3b6fd3, type: 2}
  m_PrefabInternal: {fileID: 0}
  m_GameObject: {fileID: 1172292608}
  m_LocalRotation: {x: 0, y: 0, z: 0, w: 1}
  m_LocalPosition: {x: 0, y: 0, z: 0}
  m_LocalScale: {x: 1, y: 1, z: 1}
  m_Children: []
  m_Father: {fileID: 1273303168}
  m_RootOrder: 1
  m_LocalEulerAnglesHint: {x: 0, y: 0, z: 0}
--- !u!114 &1172292610
MonoBehaviour:
  m_ObjectHideFlags: 0
  m_PrefabParentObject: {fileID: 11402530, guid: 2bc3ec6a75f48c940987f299bc3b6fd3,
    type: 2}
  m_PrefabInternal: {fileID: 0}
  m_GameObject: {fileID: 1172292608}
  m_Enabled: 1
  m_EditorHideFlags: 0
  m_Script: {fileID: 11500000, guid: cfb12777e12bf9941b23356a343f5016, type: 3}
  m_Name: 
  m_EditorClassIdentifier: 
  _eyeType:
    _orderType: 2
  _overrideEyePosition: 1
--- !u!114 &1172292611
MonoBehaviour:
  m_ObjectHideFlags: 0
  m_PrefabParentObject: {fileID: 11443750, guid: 2bc3ec6a75f48c940987f299bc3b6fd3,
    type: 2}
  m_PrefabInternal: {fileID: 0}
  m_GameObject: {fileID: 1172292608}
  m_Enabled: 1
  m_EditorHideFlags: 0
  m_Script: {fileID: 11500000, guid: 4499ae867a57a90449cb9069c466ade0, type: 3}
  m_Name: 
  m_EditorClassIdentifier: 
  _depthTextureMode: 0
--- !u!20 &1172292612
Camera:
  m_ObjectHideFlags: 0
  m_PrefabParentObject: {fileID: 2071288, guid: 2bc3ec6a75f48c940987f299bc3b6fd3,
    type: 2}
  m_PrefabInternal: {fileID: 0}
  m_GameObject: {fileID: 1172292608}
  m_Enabled: 1
  serializedVersion: 2
  m_ClearFlags: 2
  m_BackGroundColor: {r: 0.32352942, g: 0.32352942, b: 0.32352942, a: 0.019607844}
  m_NormalizedViewPortRect:
    serializedVersion: 2
    x: 0
    y: 0
    width: 1
    height: 1
  near clip plane: 0.01
  far clip plane: 100
  field of view: 106.092
  orthographic: 0
  orthographic size: 5
  m_Depth: 0
  m_CullingMask:
    serializedVersion: 2
    m_Bits: 4294967295
  m_RenderingPath: -1
  m_TargetTexture: {fileID: 0}
  m_TargetDisplay: 0
  m_TargetEye: 2
  m_HDR: 0
  m_AllowMSAA: 1
  m_ForceIntoRT: 0
  m_OcclusionCulling: 1
  m_StereoConvergence: 10
  m_StereoSeparation: 0.022
  m_StereoMirrorMode: 0
--- !u!1001 &1234086271
Prefab:
  m_ObjectHideFlags: 0
  serializedVersion: 2
  m_Modification:
    m_TransformParent: {fileID: 59362118}
    m_Modifications:
    - target: {fileID: 4542260197562760, guid: 2aa010a1e75292e49a24f3f71bb9cddb, type: 2}
      propertyPath: m_LocalPosition.x
      value: 0
      objectReference: {fileID: 0}
    - target: {fileID: 4542260197562760, guid: 2aa010a1e75292e49a24f3f71bb9cddb, type: 2}
      propertyPath: m_LocalPosition.y
      value: 0
      objectReference: {fileID: 0}
    - target: {fileID: 4542260197562760, guid: 2aa010a1e75292e49a24f3f71bb9cddb, type: 2}
      propertyPath: m_LocalPosition.z
      value: 0
      objectReference: {fileID: 0}
    - target: {fileID: 4542260197562760, guid: 2aa010a1e75292e49a24f3f71bb9cddb, type: 2}
      propertyPath: m_LocalRotation.x
      value: -0
      objectReference: {fileID: 0}
    - target: {fileID: 4542260197562760, guid: 2aa010a1e75292e49a24f3f71bb9cddb, type: 2}
      propertyPath: m_LocalRotation.y
      value: -0
      objectReference: {fileID: 0}
    - target: {fileID: 4542260197562760, guid: 2aa010a1e75292e49a24f3f71bb9cddb, type: 2}
      propertyPath: m_LocalRotation.z
      value: -0
      objectReference: {fileID: 0}
    - target: {fileID: 4542260197562760, guid: 2aa010a1e75292e49a24f3f71bb9cddb, type: 2}
      propertyPath: m_LocalRotation.w
      value: 1
      objectReference: {fileID: 0}
    - target: {fileID: 4542260197562760, guid: 2aa010a1e75292e49a24f3f71bb9cddb, type: 2}
      propertyPath: m_RootOrder
      value: 0
      objectReference: {fileID: 0}
    - target: {fileID: 4531056800117064, guid: 2aa010a1e75292e49a24f3f71bb9cddb, type: 2}
      propertyPath: m_LocalRotation.x
      value: 0.99997807
      objectReference: {fileID: 0}
    - target: {fileID: 4531056800117064, guid: 2aa010a1e75292e49a24f3f71bb9cddb, type: 2}
      propertyPath: m_LocalRotation.y
      value: 0.0063719144
      objectReference: {fileID: 0}
    - target: {fileID: 4531056800117064, guid: 2aa010a1e75292e49a24f3f71bb9cddb, type: 2}
      propertyPath: m_LocalRotation.z
      value: -0.0018012521
      objectReference: {fileID: 0}
    - target: {fileID: 4531056800117064, guid: 2aa010a1e75292e49a24f3f71bb9cddb, type: 2}
      propertyPath: m_LocalRotation.w
      value: 0.000011265277
      objectReference: {fileID: 0}
    m_RemovedComponents: []
  m_ParentPrefab: {fileID: 100100000, guid: 2aa010a1e75292e49a24f3f71bb9cddb, type: 2}
  m_IsPrefabParent: 0
--- !u!1 &1273303167
GameObject:
  m_ObjectHideFlags: 0
  m_PrefabParentObject: {fileID: 161590, guid: 2bc3ec6a75f48c940987f299bc3b6fd3, type: 2}
  m_PrefabInternal: {fileID: 0}
  serializedVersion: 5
  m_Component:
  - component: {fileID: 1273303168}
  - component: {fileID: 1273303169}
  m_Layer: 0
  m_Name: LMHeadMountedRig_AR
  m_TagString: Untagged
  m_Icon: {fileID: 0}
  m_NavMeshLayer: 0
  m_StaticEditorFlags: 0
  m_IsActive: 1
--- !u!4 &1273303168
Transform:
  m_ObjectHideFlags: 0
  m_PrefabParentObject: {fileID: 427870, guid: 2bc3ec6a75f48c940987f299bc3b6fd3, type: 2}
  m_PrefabInternal: {fileID: 0}
  m_GameObject: {fileID: 1273303167}
  m_LocalRotation: {x: 0, y: 0, z: 0, w: 1}
  m_LocalPosition: {x: 0, y: 0, z: 0}
  m_LocalScale: {x: 1, y: 1, z: 1}
  m_Children:
  - {fileID: 580896530}
  - {fileID: 1172292609}
  - {fileID: 59362118}
  m_Father: {fileID: 0}
  m_RootOrder: 1
  m_LocalEulerAnglesHint: {x: 0, y: 0, z: 0}
--- !u!114 &1273303169
MonoBehaviour:
  m_ObjectHideFlags: 0
  m_PrefabParentObject: {fileID: 0}
  m_PrefabInternal: {fileID: 0}
  m_GameObject: {fileID: 1273303167}
  m_Enabled: 1
  m_EditorHideFlags: 0
  m_Script: {fileID: 11500000, guid: fb8f8839ee256bb458e1657c1ee40572, type: 3}
  m_Name: 
  m_EditorClassIdentifier: 
  _deviceOffsets:
  - DeviceName: oculus
    HeightOffset: 1
  moveUpKey: 0
  moveDownKey: 0
  stepSize: 0.1
--- !u!1 &1422251472
GameObject:
  m_ObjectHideFlags: 0
  m_PrefabParentObject: {fileID: 188214, guid: 2bc3ec6a75f48c940987f299bc3b6fd3, type: 2}
  m_PrefabInternal: {fileID: 0}
  serializedVersion: 5
  m_Component:
  - component: {fileID: 1422251473}
  - component: {fileID: 1422251476}
  - component: {fileID: 1422251475}
  - component: {fileID: 1422251474}
  m_Layer: 0
  m_Name: LeapHandController
  m_TagString: Untagged
  m_Icon: {fileID: 0}
  m_NavMeshLayer: 0
  m_StaticEditorFlags: 0
  m_IsActive: 1
--- !u!4 &1422251473
Transform:
  m_ObjectHideFlags: 0
  m_PrefabParentObject: {fileID: 404766, guid: 2bc3ec6a75f48c940987f299bc3b6fd3, type: 2}
  m_PrefabInternal: {fileID: 0}
  m_GameObject: {fileID: 1422251472}
  m_LocalRotation: {x: 0.000000115202326, y: -0.7071067, z: -0.7071068, w: -0.00000011520231}
  m_LocalPosition: {x: 0, y: 0, z: 0}
  m_LocalScale: {x: 1, y: 1, z: 1}
  m_Children: []
  m_Father: {fileID: 433848303}
  m_RootOrder: 0
  m_LocalEulerAnglesHint: {x: -89.980194, y: 180, z: 0}
--- !u!114 &1422251474
MonoBehaviour:
  m_ObjectHideFlags: 0
  m_PrefabParentObject: {fileID: 11451836, guid: 2bc3ec6a75f48c940987f299bc3b6fd3,
    type: 2}
  m_PrefabInternal: {fileID: 0}
  m_GameObject: {fileID: 1422251472}
  m_Enabled: 1
  m_EditorHideFlags: 0
  m_Script: {fileID: 11500000, guid: c592f16851a620743868a31232613370, type: 3}
  m_Name: 
  m_EditorClassIdentifier: 
  _modelsParent: {fileID: 59362118}
  ModelPool:
  - GroupName: Graphics_Hands
    _handPool: {fileID: 0}
    LeftModel: {fileID: 1992000243}
    IsLeftToBeSpawned: 0
    RightModel: {fileID: 1051187772}
    IsRightToBeSpawned: 0
    modelList: []
    modelsCheckedOut: []
    IsEnabled: 1
    CanDuplicate: 1
    HandPostProcesses:
      m_PersistentCalls:
        m_Calls: []
      m_TypeName: Leap.Unity.Hands+HandEvent, Assembly-CSharp, Version=0.0.0.0, Culture=neutral,
        PublicKeyToken=null
--- !u!114 &1422251475
MonoBehaviour:
  m_ObjectHideFlags: 0
  m_PrefabParentObject: {fileID: 11420548, guid: 2bc3ec6a75f48c940987f299bc3b6fd3,
    type: 2}
  m_PrefabInternal: {fileID: 0}
  m_GameObject: {fileID: 1422251472}
  m_Enabled: 1
  m_EditorHideFlags: 0
  m_Script: {fileID: 11500000, guid: 025cc0fa7b46aa541aba29d28d35ac09, type: 3}
  m_Name: 
  m_EditorClassIdentifier: 
  editTimePose: 0
  _isHeadMounted: 1
  _temporalWarping: {fileID: 433848304}
  _frameOptimization: 0
  _updateHandInPrecull: 0
--- !u!114 &1422251476
MonoBehaviour:
  m_ObjectHideFlags: 0
  m_PrefabParentObject: {fileID: 11450634, guid: 2bc3ec6a75f48c940987f299bc3b6fd3,
    type: 2}
  m_PrefabInternal: {fileID: 0}
  m_GameObject: {fileID: 1422251472}
  m_Enabled: 1
  m_EditorHideFlags: 0
  m_Script: {fileID: 11500000, guid: 215a4d49fc705b74a9d3c5cbfa2c9601, type: 3}
  m_Name: 
  m_EditorClassIdentifier: 
--- !u!1001 &1719504580
Prefab:
  m_ObjectHideFlags: 0
  serializedVersion: 2
  m_Modification:
    m_TransformParent: {fileID: 59362118}
    m_Modifications:
    - target: {fileID: 4430945870454064, guid: 2276723046d707c4f94d431ceb80ab92, type: 2}
      propertyPath: m_LocalPosition.x
      value: 0
      objectReference: {fileID: 0}
    - target: {fileID: 4430945870454064, guid: 2276723046d707c4f94d431ceb80ab92, type: 2}
      propertyPath: m_LocalPosition.y
      value: 0
      objectReference: {fileID: 0}
    - target: {fileID: 4430945870454064, guid: 2276723046d707c4f94d431ceb80ab92, type: 2}
      propertyPath: m_LocalPosition.z
      value: 0
      objectReference: {fileID: 0}
    - target: {fileID: 4430945870454064, guid: 2276723046d707c4f94d431ceb80ab92, type: 2}
      propertyPath: m_LocalRotation.x
      value: -0
      objectReference: {fileID: 0}
    - target: {fileID: 4430945870454064, guid: 2276723046d707c4f94d431ceb80ab92, type: 2}
      propertyPath: m_LocalRotation.y
      value: -0
      objectReference: {fileID: 0}
    - target: {fileID: 4430945870454064, guid: 2276723046d707c4f94d431ceb80ab92, type: 2}
      propertyPath: m_LocalRotation.z
      value: -0
      objectReference: {fileID: 0}
    - target: {fileID: 4430945870454064, guid: 2276723046d707c4f94d431ceb80ab92, type: 2}
      propertyPath: m_LocalRotation.w
      value: 1
      objectReference: {fileID: 0}
    - target: {fileID: 4430945870454064, guid: 2276723046d707c4f94d431ceb80ab92, type: 2}
      propertyPath: m_RootOrder
      value: 1
      objectReference: {fileID: 0}
    - target: {fileID: 4111511758846408, guid: 2276723046d707c4f94d431ceb80ab92, type: 2}
      propertyPath: m_LocalRotation.x
      value: -0.53516835
      objectReference: {fileID: 0}
    - target: {fileID: 4111511758846408, guid: 2276723046d707c4f94d431ceb80ab92, type: 2}
      propertyPath: m_LocalRotation.y
      value: 0.3575552
      objectReference: {fileID: 0}
    - target: {fileID: 4111511758846408, guid: 2276723046d707c4f94d431ceb80ab92, type: 2}
      propertyPath: m_LocalRotation.z
      value: 0.019904858
      objectReference: {fileID: 0}
    - target: {fileID: 4111511758846408, guid: 2276723046d707c4f94d431ceb80ab92, type: 2}
      propertyPath: m_LocalRotation.w
      value: -0.7650836
      objectReference: {fileID: 0}
    - target: {fileID: 4125451489810824, guid: 2276723046d707c4f94d431ceb80ab92, type: 2}
      propertyPath: m_LocalRotation.x
      value: 0.07399494
      objectReference: {fileID: 0}
    - target: {fileID: 4125451489810824, guid: 2276723046d707c4f94d431ceb80ab92, type: 2}
      propertyPath: m_LocalRotation.y
      value: 0.009242276
      objectReference: {fileID: 0}
    - target: {fileID: 4125451489810824, guid: 2276723046d707c4f94d431ceb80ab92, type: 2}
      propertyPath: m_LocalRotation.z
      value: 0.07527789
      objectReference: {fileID: 0}
    - target: {fileID: 4125451489810824, guid: 2276723046d707c4f94d431ceb80ab92, type: 2}
      propertyPath: m_LocalRotation.w
      value: -0.99437046
      objectReference: {fileID: 0}
    - target: {fileID: 4627682728503200, guid: 2276723046d707c4f94d431ceb80ab92, type: 2}
      propertyPath: m_LocalRotation.x
      value: -0.9999781
      objectReference: {fileID: 0}
    - target: {fileID: 4627682728503200, guid: 2276723046d707c4f94d431ceb80ab92, type: 2}
      propertyPath: m_LocalRotation.y
      value: -0.0063719153
      objectReference: {fileID: 0}
    - target: {fileID: 4627682728503200, guid: 2276723046d707c4f94d431ceb80ab92, type: 2}
      propertyPath: m_LocalRotation.z
      value: 0.0018012524
      objectReference: {fileID: 0}
    - target: {fileID: 4627682728503200, guid: 2276723046d707c4f94d431ceb80ab92, type: 2}
      propertyPath: m_LocalRotation.w
      value: -0.000011593103
      objectReference: {fileID: 0}
    - target: {fileID: 4564650654462602, guid: 2276723046d707c4f94d431ceb80ab92, type: 2}
      propertyPath: m_LocalRotation.x
      value: 0.17725912
      objectReference: {fileID: 0}
    - target: {fileID: 4564650654462602, guid: 2276723046d707c4f94d431ceb80ab92, type: 2}
      propertyPath: m_LocalRotation.y
      value: -0.13843814
      objectReference: {fileID: 0}
    - target: {fileID: 4564650654462602, guid: 2276723046d707c4f94d431ceb80ab92, type: 2}
      propertyPath: m_LocalRotation.z
      value: 0.029145679
      objectReference: {fileID: 0}
    - target: {fileID: 4564650654462602, guid: 2276723046d707c4f94d431ceb80ab92, type: 2}
      propertyPath: m_LocalPosition.x
      value: 0.008187883
      objectReference: {fileID: 0}
    - target: {fileID: 4564650654462602, guid: 2276723046d707c4f94d431ceb80ab92, type: 2}
      propertyPath: m_LocalPosition.y
      value: 0.0016831523
      objectReference: {fileID: 0}
    - target: {fileID: 4564650654462602, guid: 2276723046d707c4f94d431ceb80ab92, type: 2}
      propertyPath: m_LocalPosition.z
      value: -0.014355963
      objectReference: {fileID: 0}
    - target: {fileID: 4356326262500756, guid: 2276723046d707c4f94d431ceb80ab92, type: 2}
      propertyPath: m_LocalRotation.y
      value: 9.3132246e-10
      objectReference: {fileID: 0}
    - target: {fileID: 4356326262500756, guid: 2276723046d707c4f94d431ceb80ab92, type: 2}
      propertyPath: m_LocalRotation.z
      value: -4.0745357e-10
      objectReference: {fileID: 0}
    - target: {fileID: 4356326262500756, guid: 2276723046d707c4f94d431ceb80ab92, type: 2}
      propertyPath: m_LocalPosition.y
      value: 0.000000007610652
      objectReference: {fileID: 0}
    - target: {fileID: 4356326262500756, guid: 2276723046d707c4f94d431ceb80ab92, type: 2}
      propertyPath: m_LocalPosition.z
      value: 0.000000011990778
      objectReference: {fileID: 0}
    - target: {fileID: 4389870053191570, guid: 2276723046d707c4f94d431ceb80ab92, type: 2}
      propertyPath: m_LocalRotation.z
      value: -5.5511138e-17
      objectReference: {fileID: 0}
    - target: {fileID: 4389870053191570, guid: 2276723046d707c4f94d431ceb80ab92, type: 2}
      propertyPath: m_LocalPosition.y
      value: 0.0000000060134107
      objectReference: {fileID: 0}
    - target: {fileID: 4389870053191570, guid: 2276723046d707c4f94d431ceb80ab92, type: 2}
      propertyPath: m_LocalPosition.z
      value: -0.000000023666695
      objectReference: {fileID: 0}
    - target: {fileID: 4606666689288932, guid: 2276723046d707c4f94d431ceb80ab92, type: 2}
      propertyPath: m_LocalRotation.x
      value: -0
      objectReference: {fileID: 0}
    - target: {fileID: 4606666689288932, guid: 2276723046d707c4f94d431ceb80ab92, type: 2}
      propertyPath: m_LocalRotation.y
      value: -0
      objectReference: {fileID: 0}
    - target: {fileID: 4606666689288932, guid: 2276723046d707c4f94d431ceb80ab92, type: 2}
      propertyPath: m_LocalRotation.z
      value: -0
      objectReference: {fileID: 0}
    - target: {fileID: 4606666689288932, guid: 2276723046d707c4f94d431ceb80ab92, type: 2}
      propertyPath: m_LocalPosition.x
      value: 0.04621999
      objectReference: {fileID: 0}
    - target: {fileID: 4606666689288932, guid: 2276723046d707c4f94d431ceb80ab92, type: 2}
      propertyPath: m_LocalPosition.y
      value: 0.0000000055879354
      objectReference: {fileID: 0}
    - target: {fileID: 4606666689288932, guid: 2276723046d707c4f94d431ceb80ab92, type: 2}
      propertyPath: m_LocalPosition.z
      value: -0.000000008381903
      objectReference: {fileID: 0}
    - target: {fileID: 4222071105232520, guid: 2276723046d707c4f94d431ceb80ab92, type: 2}
      propertyPath: m_LocalPosition.x
      value: 0.02238001
      objectReference: {fileID: 0}
    - target: {fileID: 4222071105232520, guid: 2276723046d707c4f94d431ceb80ab92, type: 2}
      propertyPath: m_LocalPosition.y
      value: -0.000000012897825
      objectReference: {fileID: 0}
    - target: {fileID: 4222071105232520, guid: 2276723046d707c4f94d431ceb80ab92, type: 2}
      propertyPath: m_LocalPosition.z
      value: -0.00000001557055
      objectReference: {fileID: 0}
    - target: {fileID: 4409171998759784, guid: 2276723046d707c4f94d431ceb80ab92, type: 2}
      propertyPath: m_LocalPosition.x
      value: 0.031569995
      objectReference: {fileID: 0}
    - target: {fileID: 4409171998759784, guid: 2276723046d707c4f94d431ceb80ab92, type: 2}
      propertyPath: m_LocalPosition.y
      value: -0.0000000055879354
      objectReference: {fileID: 0}
    - target: {fileID: 4409171998759784, guid: 2276723046d707c4f94d431ceb80ab92, type: 2}
      propertyPath: m_LocalPosition.z
      value: -0.000000017695129
      objectReference: {fileID: 0}
    - target: {fileID: 4595006835456676, guid: 2276723046d707c4f94d431ceb80ab92, type: 2}
      propertyPath: m_LocalPosition.x
      value: 0.03274001
      objectReference: {fileID: 0}
    - target: {fileID: 4595006835456676, guid: 2276723046d707c4f94d431ceb80ab92, type: 2}
      propertyPath: m_LocalPosition.y
      value: -0.0000000026720017
      objectReference: {fileID: 0}
    - target: {fileID: 4595006835456676, guid: 2276723046d707c4f94d431ceb80ab92, type: 2}
      propertyPath: m_LocalPosition.z
      value: -0.000000005820766
      objectReference: {fileID: 0}
    - target: {fileID: 4845852643395992, guid: 2276723046d707c4f94d431ceb80ab92, type: 2}
      propertyPath: m_LocalPosition.y
      value: -0.00000001152209
      objectReference: {fileID: 0}
    - target: {fileID: 4845852643395992, guid: 2276723046d707c4f94d431ceb80ab92, type: 2}
      propertyPath: m_LocalPosition.z
      value: 0.000000013587624
      objectReference: {fileID: 0}
    - target: {fileID: 4138807105493540, guid: 2276723046d707c4f94d431ceb80ab92, type: 2}
      propertyPath: m_LocalRotation.x
      value: 0.10489069
      objectReference: {fileID: 0}
    - target: {fileID: 4138807105493540, guid: 2276723046d707c4f94d431ceb80ab92, type: 2}
      propertyPath: m_LocalRotation.y
      value: -0.06845508
      objectReference: {fileID: 0}
    - target: {fileID: 4138807105493540, guid: 2276723046d707c4f94d431ceb80ab92, type: 2}
      propertyPath: m_LocalRotation.w
      value: -0.9898138
      objectReference: {fileID: 0}
    - target: {fileID: 4138807105493540, guid: 2276723046d707c4f94d431ceb80ab92, type: 2}
      propertyPath: m_LocalPosition.z
      value: -0.0033526216
      objectReference: {fileID: 0}
    - target: {fileID: 4895935397532050, guid: 2276723046d707c4f94d431ceb80ab92, type: 2}
      propertyPath: m_LocalRotation.x
      value: -0.0062662126
      objectReference: {fileID: 0}
    - target: {fileID: 4895935397532050, guid: 2276723046d707c4f94d431ceb80ab92, type: 2}
      propertyPath: m_LocalRotation.y
      value: 0.08401722
      objectReference: {fileID: 0}
    - target: {fileID: 4895935397532050, guid: 2276723046d707c4f94d431ceb80ab92, type: 2}
      propertyPath: m_LocalRotation.z
      value: 0.07411176
      objectReference: {fileID: 0}
    - target: {fileID: 4895935397532050, guid: 2276723046d707c4f94d431ceb80ab92, type: 2}
      propertyPath: m_LocalPosition.x
      value: 0.0067393417
      objectReference: {fileID: 0}
    - target: {fileID: 4895935397532050, guid: 2276723046d707c4f94d431ceb80ab92, type: 2}
      propertyPath: m_LocalPosition.y
      value: 0.00810496
      objectReference: {fileID: 0}
    - target: {fileID: 4895935397532050, guid: 2276723046d707c4f94d431ceb80ab92, type: 2}
      propertyPath: m_LocalPosition.z
      value: 0.018928457
      objectReference: {fileID: 0}
    - target: {fileID: 4800436088954352, guid: 2276723046d707c4f94d431ceb80ab92, type: 2}
      propertyPath: m_LocalPosition.y
      value: -0.0000000028012541
      objectReference: {fileID: 0}
    - target: {fileID: 4800436088954352, guid: 2276723046d707c4f94d431ceb80ab92, type: 2}
      propertyPath: m_LocalPosition.z
      value: -0.00000001260614
      objectReference: {fileID: 0}
    - target: {fileID: 4125451489810824, guid: 2276723046d707c4f94d431ceb80ab92, type: 2}
      propertyPath: m_LocalPosition.x
      value: 0.0093952855
      objectReference: {fileID: 0}
    - target: {fileID: 4125451489810824, guid: 2276723046d707c4f94d431ceb80ab92, type: 2}
      propertyPath: m_LocalPosition.y
      value: 0.009582789
      objectReference: {fileID: 0}
    - target: {fileID: 4125451489810824, guid: 2276723046d707c4f94d431ceb80ab92, type: 2}
      propertyPath: m_LocalPosition.z
      value: 0.007939833
      objectReference: {fileID: 0}
    - target: {fileID: 4544795542177852, guid: 2276723046d707c4f94d431ceb80ab92, type: 2}
      propertyPath: m_LocalPosition.x
      value: 0.039780006
      objectReference: {fileID: 0}
    - target: {fileID: 4544795542177852, guid: 2276723046d707c4f94d431ceb80ab92, type: 2}
      propertyPath: m_LocalPosition.y
      value: -0.000000016542836
      objectReference: {fileID: 0}
    - target: {fileID: 4544795542177852, guid: 2276723046d707c4f94d431ceb80ab92, type: 2}
      propertyPath: m_LocalPosition.z
      value: 0.000000009837095
      objectReference: {fileID: 0}
    - target: {fileID: 4743576770914512, guid: 2276723046d707c4f94d431ceb80ab92, type: 2}
      propertyPath: m_LocalRotation.x
      value: -0.0000000074505797
      objectReference: {fileID: 0}
    - target: {fileID: 4743576770914512, guid: 2276723046d707c4f94d431ceb80ab92, type: 2}
      propertyPath: m_LocalRotation.y
      value: -0.0000000074505797
      objectReference: {fileID: 0}
    - target: {fileID: 4743576770914512, guid: 2276723046d707c4f94d431ceb80ab92, type: 2}
      propertyPath: m_LocalRotation.z
      value: -0.0000000023283062
      objectReference: {fileID: 0}
    - target: {fileID: 4743576770914512, guid: 2276723046d707c4f94d431ceb80ab92, type: 2}
      propertyPath: m_LocalPosition.y
      value: 0.00000001792796
      objectReference: {fileID: 0}
    - target: {fileID: 4743576770914512, guid: 2276723046d707c4f94d431ceb80ab92, type: 2}
      propertyPath: m_LocalPosition.z
      value: -0.0000000048894435
      objectReference: {fileID: 0}
    - target: {fileID: 4958922228817942, guid: 2276723046d707c4f94d431ceb80ab92, type: 2}
      propertyPath: m_LocalPosition.y
      value: -0.0000000104268185
      objectReference: {fileID: 0}
    - target: {fileID: 4958922228817942, guid: 2276723046d707c4f94d431ceb80ab92, type: 2}
      propertyPath: m_LocalPosition.z
      value: 0.000000015415866
      objectReference: {fileID: 0}
    - target: {fileID: 4531893592447476, guid: 2276723046d707c4f94d431ceb80ab92, type: 2}
      propertyPath: m_LocalPosition.y
      value: 0.000000004656613
      objectReference: {fileID: 0}
    - target: {fileID: 4531893592447476, guid: 2276723046d707c4f94d431ceb80ab92, type: 2}
      propertyPath: m_LocalPosition.z
      value: -0.000000009778887
      objectReference: {fileID: 0}
    - target: {fileID: 4116356619471150, guid: 2276723046d707c4f94d431ceb80ab92, type: 2}
      propertyPath: m_LocalRotation.x
      value: 4.6566123e-10
      objectReference: {fileID: 0}
    - target: {fileID: 4116356619471150, guid: 2276723046d707c4f94d431ceb80ab92, type: 2}
      propertyPath: m_LocalRotation.z
      value: -0.0000000031432132
      objectReference: {fileID: 0}
    - target: {fileID: 4116356619471150, guid: 2276723046d707c4f94d431ceb80ab92, type: 2}
      propertyPath: m_LocalPosition.x
      value: 0.06812
      objectReference: {fileID: 0}
    - target: {fileID: 4116356619471150, guid: 2276723046d707c4f94d431ceb80ab92, type: 2}
      propertyPath: m_LocalPosition.y
      value: -0.0000000035797711
      objectReference: {fileID: 0}
    - target: {fileID: 4116356619471150, guid: 2276723046d707c4f94d431ceb80ab92, type: 2}
      propertyPath: m_LocalPosition.z
      value: -0.00000000858563
      objectReference: {fileID: 0}
    - target: {fileID: 4149354895858466, guid: 2276723046d707c4f94d431ceb80ab92, type: 2}
      propertyPath: m_LocalPosition.x
      value: 0.018109977
      objectReference: {fileID: 0}
    - target: {fileID: 4149354895858466, guid: 2276723046d707c4f94d431ceb80ab92, type: 2}
      propertyPath: m_LocalPosition.y
      value: 6.746492e-11
      objectReference: {fileID: 0}
    - target: {fileID: 4149354895858466, guid: 2276723046d707c4f94d431ceb80ab92, type: 2}
      propertyPath: m_LocalPosition.z
      value: 0.0000000044237822
      objectReference: {fileID: 0}
    - target: {fileID: 4111511758846408, guid: 2276723046d707c4f94d431ceb80ab92, type: 2}
      propertyPath: m_LocalPosition.x
      value: -0.0031684842
      objectReference: {fileID: 0}
    - target: {fileID: 4111511758846408, guid: 2276723046d707c4f94d431ceb80ab92, type: 2}
      propertyPath: m_LocalPosition.y
      value: -0.010000013
      objectReference: {fileID: 0}
    - target: {fileID: 4111511758846408, guid: 2276723046d707c4f94d431ceb80ab92, type: 2}
      propertyPath: m_LocalPosition.z
      value: 0.026396383
      objectReference: {fileID: 0}
    m_RemovedComponents: []
  m_ParentPrefab: {fileID: 100100000, guid: 2276723046d707c4f94d431ceb80ab92, type: 2}
  m_IsPrefabParent: 0
--- !u!1 &1966885502
GameObject:
  m_ObjectHideFlags: 0
  m_PrefabParentObject: {fileID: 0}
  m_PrefabInternal: {fileID: 0}
  serializedVersion: 5
  m_Component:
  - component: {fileID: 1966885504}
  - component: {fileID: 1966885503}
  m_Layer: 0
  m_Name: Directional Light
  m_TagString: Untagged
  m_Icon: {fileID: 0}
  m_NavMeshLayer: 0
  m_StaticEditorFlags: 0
  m_IsActive: 1
--- !u!108 &1966885503
Light:
  m_ObjectHideFlags: 0
  m_PrefabParentObject: {fileID: 0}
  m_PrefabInternal: {fileID: 0}
  m_GameObject: {fileID: 1966885502}
  m_Enabled: 1
  serializedVersion: 8
  m_Type: 1
  m_Color: {r: 1, g: 0.95686275, b: 0.8392157, a: 1}
  m_Intensity: 0.56
  m_Range: 10
  m_SpotAngle: 30
  m_CookieSize: 10
  m_Shadows:
    m_Type: 2
    m_Resolution: -1
    m_CustomResolution: -1
    m_Strength: 1
    m_Bias: 0.05
    m_NormalBias: 0.4
    m_NearPlane: 0.2
  m_Cookie: {fileID: 0}
  m_DrawHalo: 0
  m_Flare: {fileID: 0}
  m_RenderMode: 0
  m_CullingMask:
    serializedVersion: 2
    m_Bits: 4294967295
  m_Lightmapping: 4
  m_AreaSize: {x: 1, y: 1}
  m_BounceIntensity: 1
  m_FalloffTable:
    m_Table[0]: 0
    m_Table[1]: 0
    m_Table[2]: 0
    m_Table[3]: 0
    m_Table[4]: 0
    m_Table[5]: 0
    m_Table[6]: 0
    m_Table[7]: 0
    m_Table[8]: 0
    m_Table[9]: 0
    m_Table[10]: 0
    m_Table[11]: 0
    m_Table[12]: 0
  m_ColorTemperature: 6570
  m_UseColorTemperature: 0
  m_ShadowRadius: 0
  m_ShadowAngle: 0
--- !u!4 &1966885504
Transform:
  m_ObjectHideFlags: 0
  m_PrefabParentObject: {fileID: 0}
  m_PrefabInternal: {fileID: 0}
  m_GameObject: {fileID: 1966885502}
  m_LocalRotation: {x: 0.40821794, y: -0.23456973, z: 0.109381676, w: 0.87542605}
  m_LocalPosition: {x: 0, y: 3, z: 0}
  m_LocalScale: {x: 1, y: 1, z: 1}
  m_Children: []
  m_Father: {fileID: 0}
  m_RootOrder: 0
  m_LocalEulerAnglesHint: {x: 50, y: -30, z: 0}
--- !u!4 &1992000241 stripped
Transform:
  m_PrefabParentObject: {fileID: 4542260197562760, guid: 2aa010a1e75292e49a24f3f71bb9cddb,
    type: 2}
  m_PrefabInternal: {fileID: 1234086271}
--- !u!114 &1992000243 stripped
MonoBehaviour:
  m_PrefabParentObject: {fileID: 114994683550464134, guid: 2aa010a1e75292e49a24f3f71bb9cddb,
    type: 2}
  m_PrefabInternal: {fileID: 1234086271}
  m_Script: {fileID: 11500000, guid: 9e0ed5922e911b343b8400997c95409c, type: 3}
