%YAML 1.1
%TAG !u! tag:unity3d.com,2011:
--- !u!21 &2100000
Material:
  serializedVersion: 6
  m_ObjectHideFlags: 0
  m_PrefabParentObject: {fileID: 0}
  m_PrefabInternal: {fileID: 0}
  m_Name: CoreParticles
  m_Shader: {fileID: 4800000, guid: a9733fe69e4186840bfd60f0d016f560, type: 3}
  m_ShaderKeywords: 
  m_LightmapFlags: 4
  m_EnableInstancingVariants: 0
  m_DoubleSidedGI: 0
  m_CustomRenderQueue: 3492
  stringTagMap: {}
  disabledShaderPasses: []
  m_SavedProperties:
    serializedVersion: 3
    m_TexEnvs:
    - _MainTex:
        m_Texture: {fileID: 2800000, guid: b7bddbdda91284b47ae75e8d776eca9c, type: 3}
        m_Scale: {x: 1, y: 1}
        m_Offset: {x: 0, y: 0}
    m_Floats:
    - _ColorStrB: 1.0787499
    - _ColorStrG: 0.01
    - _ColorStrR: 0.7937499
    - _CoreStrength: 3.7142859
    - _CutOutLightCore: 1
    - _InvFade: 3
    - _TintStrength: 5
    m_Colors:
    - _Color: {r: 1, g: 1, b: 1, a: 1}
    - _CoreColor: {r: 0.5, g: 0.5, b: 0.5, a: 0.5}
    - _TintColor: {r: 0, g: 0, b: 0, a: 0.5019608}
    - _TintColorB: {r: 0, g: 0, b: 0, a: 1}
    - _TintColorG: {r: 0.5, g: 0.5, b: 0.5, a: 1}
    - _TintColorR: {r: 1, g: 0.5411831, b: 0.1544118, a: 1}
