%YAML 1.1
%TAG !u! tag:unity3d.com,2011:
--- !u!21 &2100000
Material:
  serializedVersion: 6
  m_ObjectHideFlags: 0
  m_PrefabParentObject: {fileID: 0}
  m_PrefabInternal: {fileID: 0}
  m_Name: Trail
  m_Shader: {fileID: 4800000, guid: 7682ab5e936afcb469d7fef4d5adf6eb, type: 3}
  m_ShaderKeywords: 
  m_LightmapFlags: 4
  m_EnableInstancingVariants: 0
  m_DoubleSidedGI: 0
  m_CustomRenderQueue: -1
  stringTagMap: {}
  disabledShaderPasses: []
  m_SavedProperties:
    serializedVersion: 3
    m_TexEnvs:
    - _MainTex:
        m_Texture: {fileID: 2800000, guid: c6d650d22b7d58a46a2c55b224165fb4, type: 3}
        m_Scale: {x: 1, y: 1}
        m_Offset: {x: 0, y: 0}
    m_Floats:
    - _CoreStrength: 3.142857
    - _CutOutLightCore: 0.107142866
    - _TintStrength: 5
    m_Colors:
    - _Color: {r: 1, g: 1, b: 1, a: 1}
    - _CoreColor: {r: 0.52205884, g: 0.68357027, b: 1, a: 0.19215687}
    - _TintColor: {r: 0.3897059, g: 0.4696754, b: 1, a: 0.22745098}
