%YAML 1.1
%TAG !u! tag:unity3d.com,2011:
--- !u!21 &2100000
Material:
  serializedVersion: 6
  m_ObjectHideFlags: 0
  m_PrefabParentObject: {fileID: 0}
  m_PrefabInternal: {fileID: 0}
  m_Name: GammaBeamMatMobile
  m_Shader: {fileID: 4800000, guid: 0806d638f118c844b9909f0a153b6bf7, type: 3}
  m_ShaderKeywords: 
  m_LightmapFlags: 4
  m_EnableInstancingVariants: 0
  m_DoubleSidedGI: 0
  m_CustomRenderQueue: 3003
  stringTagMap: {}
  disabledShaderPasses: []
  m_SavedProperties:
    serializedVersion: 3
    m_TexEnvs:
    - _BumpMap:
        m_Texture: {fileID: 2800000, guid: bc21d47730720a841942b219381cf102, type: 3}
        m_Scale: {x: 1, y: 1}
        m_Offset: {x: 1, y: 0}
    - _CutOut:
        m_Texture: {fileID: 2800000, guid: f72cf70f05ac9e845afaaaa62ec6d22a, type: 3}
        m_Scale: {x: 1, y: 1}
        m_Offset: {x: 0, y: 0}
    - _CutoutTex:
        m_Texture: {fileID: 2800000, guid: 969fe4c0a05aa7548b2eb4c60af3707c, type: 3}
        m_Scale: {x: 1, y: 1}
        m_Offset: {x: 0, y: 0}
    - _MainTex:
        m_Texture: {fileID: 2800000, guid: ab38baf105a48c44d9bc1a696bf2d122, type: 3}
        m_Scale: {x: 1, y: 1}
        m_Offset: {x: 0, y: 0}
    m_Floats:
    - _BumpAmt: 41.071426
    - _ColorStrength: 1
    - _DistortIllum: 1
    - _InvFade: 1
    m_Colors:
    - _Color: {r: 0.36764705, g: 0.4766736, b: 1, a: 1}
    - _TintColor: {r: 0.41911763, g: 0.54330623, b: 1, a: 1}
