%YAML 1.1
%TAG !u! tag:unity3d.com,2011:
--- !u!21 &2100000
Material:
  serializedVersion: 6
  m_ObjectHideFlags: 0
  m_PrefabParentObject: {fileID: 0}
  m_PrefabInternal: {fileID: 0}
  m_Name: FragmentIceMobile
  m_Shader: {fileID: 4800000, guid: cbb3742d14f18b840b12244fa880a113, type: 3}
  m_ShaderKeywords: 
  m_LightmapFlags: 4
  m_EnableInstancingVariants: 0
  m_DoubleSidedGI: 0
  m_CustomRenderQueue: -1
  stringTagMap: {}
  disabledShaderPasses: []
  m_SavedProperties:
    serializedVersion: 3
    m_TexEnvs:
    - _BumpMap:
        m_Texture: {fileID: 2800000, guid: c6ade4c2fb3de764bbef1ae231d1d039, type: 3}
        m_Scale: {x: 0.1, y: 0.2}
        m_Offset: {x: 0, y: 0}
    - _BumpMapGlass:
        m_Texture: {fileID: 0}
        m_Scale: {x: 1, y: 1}
        m_Offset: {x: 0, y: 0}
    - _Cube:
        m_Texture: {fileID: 8900000, guid: e2fc12be2e3e72f44a8a78d46d5e2559, type: 2}
        m_Scale: {x: 1, y: 1}
        m_Offset: {x: 0, y: 0}
    - _MainTex:
        m_Texture: {fileID: 2800000, guid: 9b2050c55ddcc63488665dc15147c97f, type: 3}
        m_Scale: {x: 0.1, y: 0.1}
        m_Offset: {x: 0, y: 0}
    m_Floats:
    - _BumpAmt: 500
    - _Cutoff: 1
    - _FPOW: 1
    - _InvFade: 1
    - _LightStr: 0.3214285
    - _Opacity: 0.46428582
    - _R0: 0.5
    - _ReflectionStrength: 11.517858
    - _Shininess: 1
    m_Colors:
    - _Color: {r: 0, g: 0, b: 0, a: 1}
    - _Emission: {r: 0, g: 0, b: 0, a: 0}
    - _ReflectColor: {r: 0.6764706, g: 0.7991886, b: 1, a: 1}
    - _SpecColor: {r: 1, g: 1, b: 1, a: 1}
    - _TintColor: {r: 0.5, g: 0.5, b: 0.5, a: 0.5}
