%YAML 1.1
%TAG !u! tag:unity3d.com,2011:
--- !u!21 &2100000
Material:
  serializedVersion: 6
  m_ObjectHideFlags: 0
  m_PrefabParentObject: {fileID: 0}
  m_PrefabInternal: {fileID: 0}
  m_Name: Line3
  m_Shader: {fileID: 4800000, guid: 49895ab10e5998b4db8eee81071536b6, type: 3}
  m_ShaderKeywords: 
  m_LightmapFlags: 4
  m_EnableInstancingVariants: 0
  m_DoubleSidedGI: 0
  m_CustomRenderQueue: -1
  stringTagMap: {}
  disabledShaderPasses: []
  m_SavedProperties:
    serializedVersion: 3
    m_TexEnvs:
    - _MainTex:
        m_Texture: {fileID: 2800000, guid: 023cdc8a088c2264d86f8d57fe83b4d5, type: 3}
        m_Scale: {x: 0.125, y: 0.0625}
        m_Offset: {x: 0.5, y: 0.5625}
    m_Floats:
    - _ColorStrength: 0.5
    - _CoreStrength: 4.5714283
    - _CutOutLightCore: 0
    - _InvFade: 7
    - _TintStrength: 2.232143
    m_Colors:
    - _Color: {r: 1, g: 1, b: 1, a: 1}
    - _CoreColor: {r: 0.5039553, g: 0.46323532, b: 1, a: 1}
    - _TintColor: {r: 0.50980395, g: 0.70342124, b: 0.99215686, a: 0.5019608}
