%YAML 1.1
%TAG !u! tag:unity3d.com,2011:
--- !u!21 &2100000
Material:
  serializedVersion: 6
  m_ObjectHideFlags: 0
  m_PrefabParentObject: {fileID: 0}
  m_PrefabInternal: {fileID: 0}
  m_Name: IceMobile
  m_Shader: {fileID: 4800000, guid: cfabd7da97056314da6905c148f5f101, type: 3}
  m_ShaderKeywords: 
  m_LightmapFlags: 4
  m_EnableInstancingVariants: 0
  m_DoubleSidedGI: 0
  m_CustomRenderQueue: -1
  stringTagMap: {}
  disabledShaderPasses: []
  m_SavedProperties:
    serializedVersion: 3
    m_TexEnvs:
    - _BumpMap:
        m_Texture: {fileID: 2800000, guid: 8cff035152bd6f74ea8296e7723dc3e6, type: 3}
        m_Scale: {x: 1, y: 1}
        m_Offset: {x: 0, y: 0}
    - _BumpMapCubeMap:
        m_Texture: {fileID: 0}
        m_Scale: {x: 1, y: 1}
        m_Offset: {x: 0, y: 0}
    - _Cube:
        m_Texture: {fileID: 8900000, guid: e2fc12be2e3e72f44a8a78d46d5e2559, type: 2}
        m_Scale: {x: 1, y: 1}
        m_Offset: {x: 0, y: 0}
    - _DispTex:
        m_Texture: {fileID: 0}
        m_Scale: {x: 1, y: 1}
        m_Offset: {x: 0, y: 0}
    - _HeightMap:
        m_Texture: {fileID: 2800000, guid: 33708ccd803b6f34285d93bfaf469506, type: 3}
        m_Scale: {x: 1, y: 1}
        m_Offset: {x: 0, y: 0}
    - _MainTex:
        m_Texture: {fileID: 2800000, guid: 9b2050c55ddcc63488665dc15147c97f, type: 3}
        m_Scale: {x: 1, y: 1}
        m_Offset: {x: 0, y: 0}
    - _NormalMap:
        m_Texture: {fileID: 0}
        m_Scale: {x: 1, y: 1}
        m_Offset: {x: 0, y: 0}
    - _ParallaxMap:
        m_Texture: {fileID: 0}
        m_Scale: {x: 1, y: 1}
        m_Offset: {x: 0, y: 0}
    m_Floats:
    - _BumpAmt: 50
    - _CutOut: 0.3
    - _Cutoff: 1
    - _Displacement: 0.3
    - _EdgeLength: 3
    - _FPOW: 2
    - _Height: 0.15
    - _LightStr: 0
    - _MainTexAlpha: 1.9285715
    - _OffsetXHeightMap: 0
    - _OffsetYHeightMap: 0
    - _Opacity: 0.96428573
    - _Parallax: 0.5
    - _R0: -0.2
    - _ReflectionStrength: 1
    - _RefractiveStrength: 1.5
    - _Scale: 0.3928571
    - _Shininess: 0.45657194
    - _Tess: 4
    m_Colors:
    - _Color: {r: 0.627451, g: 0.7137255, b: 0.8901961, a: 1}
    - _ReflectColor: {r: 0.9632353, g: 0.97870183, b: 1, a: 1}
    - _RimColor: {r: 0.87018263, g: 0.85294116, b: 1, a: 1}
    - _SpecColor: {r: 0.5294118, g: 0.5294118, b: 0.5294118, a: 1}
